waveforms.vcd
$date
	Tue Jan 20 09:55:09 2026
$end
$version
	Icarus Verilog
$end
$timescale
	10ps
$end
$scope module ALU $end
$var wire 8 ! A [7:0] $end
$var wire 8 " B [7:0] $end
$var wire 4 # op [3:0] $end
$var wire 8 $ or_result [7:0] $end
$var wire 8 % and_result [7:0] $end
$var reg 8 & result [7:0] $end
$scope module and_instance $end
$var wire 8 ' A [7:0] $end
$var wire 8 ( B [7:0] $end
$var wire 1 ) selection $end
$var wire 8 * result [7:0] $end
$upscope $end
$scope module or_instance $end
$var wire 8 + A [7:0] $end
$var wire 8 , B [7:0] $end
$var wire 1 - selection $end
$var wire 8 . result [7:0] $end
$upscope $end
$upscope $end
$scope module tutorial_tb $end
$var reg 8 / AddImmediate [7:0] $end
$var reg 1 0 RAin $end
$var reg 1 1 RAout $end
$var reg 1 2 RBin $end
$var reg 1 3 RBout $end
$var reg 1 4 RZin $end
$var reg 1 5 RZout $end
$var reg 8 6 RegisterAImmediate [7:0] $end
$var reg 1 7 clear $end
$var reg 1 8 clock $end
$var reg 4 9 present_state [3:0] $end
$scope module DP $end
$var wire 8 : A [7:0] $end
$var wire 1 0 RAin $end
$var wire 1 1 RAout $end
$var wire 1 2 RBin $end
$var wire 1 3 RBout $end
$var wire 1 4 RZin $end
$var wire 1 5 RZout $end
$var wire 8 ; RegisterAImmediate [7:0] $end
$var wire 1 7 clear $end
$var wire 1 8 clock $end
$var wire 8 < Zregin [7:0] $end
$var wire 8 = BusMuxOut [7:0] $end
$var wire 8 > BusMuxInRZ [7:0] $end
$var wire 8 ? BusMuxInRB [7:0] $end
$var wire 8 @ BusMuxInRA [7:0] $end
$scope module RA $end
$var wire 8 A BusMuxIn [7:0] $end
$var wire 8 B BusMuxOut [7:0] $end
$var wire 1 7 clear $end
$var wire 1 8 clock $end
$var wire 1 0 enable $end
$var reg 8 C q [7:0] $end
$upscope $end
$scope module RB $end
$var wire 8 D BusMuxIn [7:0] $end
$var wire 1 7 clear $end
$var wire 1 8 clock $end
$var wire 1 2 enable $end
$var wire 8 E BusMuxOut [7:0] $end
$var reg 8 F q [7:0] $end
$upscope $end
$scope module RZ $end
$var wire 8 G BusMuxIn [7:0] $end
$var wire 1 7 clear $end
$var wire 1 8 clock $end
$var wire 1 4 enable $end
$var wire 8 H BusMuxOut [7:0] $end
$var reg 8 I q [7:0] $end
$upscope $end
$scope module add $end
$var wire 8 J A [7:0] $end
$var wire 8 K B [7:0] $end
$var reg 9 L LocalCarry [8:0] $end
$var reg 8 M Result [7:0] $end
$var integer 32 N i [31:0] $end
$upscope $end
$scope module bus $end
$var wire 8 O BusMuxInRA [7:0] $end
$var wire 8 P BusMuxInRB [7:0] $end
$var wire 8 Q BusMuxInRZ [7:0] $end
$var wire 8 R BusMuxOut [7:0] $end
$var wire 1 1 RAout $end
$var wire 1 3 RBout $end
$var wire 1 5 RZout $end
$var reg 8 S q [7:0] $end
$upscope $end
$upscope $end
$upscope $end
$enddefinitions $end
#0
$dumpvars
bx S
bx R
b0 Q
b0 P
b0 O
bx N
bx M
bx L
bx K
bx J
b0 I
bx H
b0 G
b0 F
bx E
b0 D
b0 C
bx B
b0 A
b0 @
b0 ?
b0 >
bx =
bx <
bx ;
bx :
b0 9
08
x7
bx 6
x5
x4
x3
x2
x1
x0
bx /
bx .
0-
bz ,
bz +
bx *
1)
bz (
bz '
bz &
bx %
bx $
bz #
bz "
bz !
$end
#1000
18
#2000
b1000 N
b0 L
04
02
00
03
01
05
b0 6
b0 ;
b0 B
b0 /
b0 :
b0 J
17
b1 9
08
#3000
18
#3500
07
#4000
10
b101 6
b101 ;
b101 B
b10 9
08
#5000
b101 @
b101 A
b101 O
b101 C
18
#5500
00
b0 6
b0 ;
b0 B
#6000
b1010 L
b1010 <
b1010 H
b1010 M
b1000 N
b101 =
b101 E
b101 K
b101 R
b101 S
14
b101 /
b101 :
b101 J
11
b11 9
08
#7000
b1010 >
b1010 G
b1010 Q
b1010 I
18
#7500
04
01
#8000
b1111 <
b1111 H
b1111 M
b1000 N
b0 L
b1010 =
b1010 E
b1010 K
b1010 R
b1010 S
12
15
b100 9
08
#9000
b1010 ?
b1010 D
b1010 P
b1010 F
18
#9500
02
05
#10000
b101 9
08
#11000
18
#12000
b110 9
08
#13000
18
#14000
b111 9
08
#15000
18
#16000
b1000 9
08
#17000
18
#18000
b1001 9
08
#19000
18
#20000
b1010 9
08
#21000
18
#22000
b1011 9
08
#23000
18
#24000
b1100 9
08
#25000
18
#26000
b1101 9
08
#27000
18
#28000
b1110 9
08
#29000
18
#30000
b1111 9
08
#31000
18
#32000
b0 9
08
#33000
18
#34000
b1010 <
b1010 H
b1010 M
b1000 N
b0 /
b0 :
b0 J
17
b1 9
08
#35000
b0 >
b0 G
b0 Q
b0 I
b0 ?
b0 D
b0 P
b0 F
b0 @
b0 A
b0 O
b0 C
18
#35500
07
#36000
10
b101 6
b101 ;
b101 B
b10 9
08
#37000
b101 @
b101 A
b101 O
b101 C
18
#37500
00
b0 6
b0 ;
b0 B
#38000
b1010 L
b1000 N
b101 =
b101 E
b101 K
b101 R
b101 S
14
b101 /
b101 :
b101 J
11
b11 9
08
#39000
b1010 >
b1010 G
b1010 Q
b1010 I
18
#39500
04
01
#40000
b1111 <
b1111 H
b1111 M
b1000 N
b0 L
b1010 =
b1010 E
b1010 K
b1010 R
b1010 S
12
15
b100 9
08
#41000
b1010 ?
b1010 D
b1010 P
b1010 F
18
#41500
02
05
#42000
b101 9
08
#43000
18
#44000
b110 9
08
#45000
18
#46000
b111 9
08
#47000
18
#48000
b1000 9
08
#49000
18
#50000
b1001 9
08
#51000
18
#52000
b1010 9
08
#53000
18
#54000
b1011 9
08
#55000
18
#56000
b1100 9
08
#57000
18
#58000
b1101 9
08
#59000
18
#60000
b1110 9
08
#61000
18
#62000
b1111 9
08
#63000
18
#64000
b0 9
08
#65000
18
#66000
b1010 <
b1010 H
b1010 M
b1000 N
b0 /
b0 :
b0 J
17
b1 9
08
#67000
b0 >
b0 G
b0 Q
b0 I
b0 ?
b0 D
b0 P
b0 F
b0 @
b0 A
b0 O
b0 C
18
#67500
07
#68000
10
b101 6
b101 ;
b101 B
b10 9
08
#69000
b101 @
b101 A
b101 O
b101 C
18
#69500
00
b0 6
b0 ;
b0 B
#70000
b1010 L
b1000 N
b101 =
b101 E
b101 K
b101 R
b101 S
14
b101 /
b101 :
b101 J
11
b11 9
08
#71000
b1010 >
b1010 G
b1010 Q
b1010 I
18
#71500
04
01
#72000
b1111 <
b1111 H
b1111 M
b1000 N
b0 L
b1010 =
b1010 E
b1010 K
b1010 R
b1010 S
12
15
b100 9
08
#73000
b1010 ?
b1010 D
b1010 P
b1010 F
18
#73500
02
05
#74000
b101 9
08
#75000
18
#76000
b110 9
08
#77000
18
#78000
b111 9
08
#79000
18
#80000
b1000 9
08
#81000
18
#82000
b1001 9
08
#83000
18
#84000
b1010 9
08
#85000
18
#86000
b1011 9
08
#87000
18
#88000
b1100 9
08
#89000
18
#90000
b1101 9
08
#91000
18
#92000
b1110 9
08
#93000
18
#94000
b1111 9
08
#95000
18
#96000
b0 9
08
#97000
18
#98000
b1010 <
b1010 H
b1010 M
b1000 N
b0 /
b0 :
b0 J
17
b1 9
08
#99000
b0 >
b0 G
b0 Q
b0 I
b0 ?
b0 D
b0 P
b0 F
b0 @
b0 A
b0 O
b0 C
18
#99500
07
#100000
10
b101 6
b101 ;
b101 B
b10 9
08
#101000
b101 @
b101 A
b101 O
b101 C
18
#101500
00
b0 6
b0 ;
b0 B
#102000
b1010 L
b1000 N
b101 =
b101 E
b101 K
b101 R
b101 S
14
b101 /
b101 :
b101 J
11
b11 9
08
#103000
b1010 >
b1010 G
b1010 Q
b1010 I
18
#103500
04
01
#104000
b1111 <
b1111 H
b1111 M
b1000 N
b0 L
b1010 =
b1010 E
b1010 K
b1010 R
b1010 S
12
15
b100 9
08
#105000
b1010 ?
b1010 D
b1010 P
b1010 F
18
#105500
02
05
#106000
b101 9
08
#107000
18
#108000
b110 9
08
#109000
18
#110000
b111 9
08
#111000
18
#112000
b1000 9
08
#113000
18
#114000
b1001 9
08
#115000
18
#116000
b1010 9
08
#117000
18
#118000
b1011 9
08
#119000
18
#120000
b1100 9
08
#121000
18
#122000
b1101 9
08
#123000
18
#124000
b1110 9
08
#125000
18
#126000
b1111 9
08
#127000
18
#128000
b0 9
08
#129000
18
#130000
b1010 <
b1010 H
b1010 M
b1000 N
b0 /
b0 :
b0 J
17
b1 9
08
#131000
b0 >
b0 G
b0 Q
b0 I
b0 ?
b0 D
b0 P
b0 F
b0 @
b0 A
b0 O
b0 C
18
#131500
07
#132000
10
b101 6
b101 ;
b101 B
b10 9
08
#133000
b101 @
b101 A
b101 O
b101 C
18
#133500
00
b0 6
b0 ;
b0 B
#134000
b1010 L
b1000 N
b101 =
b101 E
b101 K
b101 R
b101 S
14
b101 /
b101 :
b101 J
11
b11 9
08
#135000
b1010 >
b1010 G
b1010 Q
b1010 I
18
#135500
04
01
#136000
b1111 <
b1111 H
b1111 M
b1000 N
b0 L
b1010 =
b1010 E
b1010 K
b1010 R
b1010 S
12
15
b100 9
08
#137000
b1010 ?
b1010 D
b1010 P
b1010 F
18
#137500
02
05
#138000
b101 9
08
#139000
18
#140000
b110 9
08
#141000
18
#142000
b111 9
08
#143000
18
#144000
b1000 9
08
#145000
18
#146000
b1001 9
08
#147000
18
#148000
b1010 9
08
#149000
18
#150000
b1011 9
08
#151000
18
#152000
b1100 9
08
#153000
18
#154000
b1101 9
08
#155000
18
#156000
b1110 9
08
#157000
18
#158000
b1111 9
08
#159000
18
#160000
b0 9
08
#161000
18
#162000
b1010 <
b1010 H
b1010 M
b1000 N
b0 /
b0 :
b0 J
17
b1 9
08
#163000
b0 >
b0 G
b0 Q
b0 I
b0 ?
b0 D
b0 P
b0 F
b0 @
b0 A
b0 O
b0 C
18
#163500
07
#164000
10
b101 6
b101 ;
b101 B
b10 9
08
#165000
b101 @
b101 A
b101 O
b101 C
18
#165500
00
b0 6
b0 ;
b0 B
#166000
b1010 L
b1000 N
b101 =
b101 E
b101 K
b101 R
b101 S
14
b101 /
b101 :
b101 J
11
b11 9
08
#167000
b1010 >
b1010 G
b1010 Q
b1010 I
18
#167500
04
01
#168000
b1111 <
b1111 H
b1111 M
b1000 N
b0 L
b1010 =
b1010 E
b1010 K
b1010 R
b1010 S
12
15
b100 9
08
#169000
b1010 ?
b1010 D
b1010 P
b1010 F
18
#169500
02
05
#170000
b101 9
08
#171000
18
#172000
b110 9
08
#173000
18
#174000
b111 9
08
#175000
18
#176000
b1000 9
08
#177000
18
#178000
b1001 9
08
#179000
18
#180000
b1010 9
08
#181000
18
#182000
b1011 9
08
#183000
18
#184000
b1100 9
08
#185000
18
#186000
b1101 9
08
#187000
18
#188000
b1110 9
08
#189000
18
#190000
b1111 9
08
#191000
18
#192000
b0 9
08
#193000
18
#194000
b1010 <
b1010 H
b1010 M
b1000 N
b0 /
b0 :
b0 J
17
b1 9
08
#195000
b0 >
b0 G
b0 Q
b0 I
b0 ?
b0 D
b0 P
b0 F
b0 @
b0 A
b0 O
b0 C
18
#195500
07
#196000
10
b101 6
b101 ;
b101 B
b10 9
08
#197000
b101 @
b101 A
b101 O
b101 C
18
#197500
00
b0 6
b0 ;
b0 B
#198000
b1010 L
b1000 N
b101 =
b101 E
b101 K
b101 R
b101 S
14
b101 /
b101 :
b101 J
11
b11 9
08
#199000
b1010 >
b1010 G
b1010 Q
b1010 I
18
#199500
04
01
#200000
b1111 <
b1111 H
b1111 M
b1000 N
b0 L
b1010 =
b1010 E
b1010 K
b1010 R
b1010 S
12
15
b100 9
08
#201000
b1010 ?
b1010 D
b1010 P
b1010 F
18
#201500
02
05
#202000
b101 9
08
#203000
18
#204000
b110 9
08
#205000
18
#206000
b111 9
08
#207000
18
#208000
b1000 9
08
#209000
18
#210000
b1001 9
08
#211000
18
#212000
b1010 9
08
#213000
18
#214000
b1011 9
08
#215000
18
#216000
b1100 9
08
#217000
18
#218000
b1101 9
08
#219000
18
#220000
b1110 9
08
#221000
18
#222000
b1111 9
08
#223000
18
#224000
b0 9
08
#225000
18
#226000
b1010 <
b1010 H
b1010 M
b1000 N
b0 /
b0 :
b0 J
17
b1 9
08
#227000
b0 >
b0 G
b0 Q
b0 I
b0 ?
b0 D
b0 P
b0 F
b0 @
b0 A
b0 O
b0 C
18
#227500
07
#228000
10
b101 6
b101 ;
b101 B
b10 9
08
#229000
b101 @
b101 A
b101 O
b101 C
18
#229500
00
b0 6
b0 ;
b0 B
#230000
b1010 L
b1000 N
b101 =
b101 E
b101 K
b101 R
b101 S
14
b101 /
b101 :
b101 J
11
b11 9
08
#231000
b1010 >
b1010 G
b1010 Q
b1010 I
18
#231500
04
01
#232000
b1111 <
b1111 H
b1111 M
b1000 N
b0 L
b1010 =
b1010 E
b1010 K
b1010 R
b1010 S
12
15
b100 9
08
#233000
b1010 ?
b1010 D
b1010 P
b1010 F
18
#233500
02
05
#234000
b101 9
08
#235000
18
#236000
b110 9
08
#237000
18
#238000
b111 9
08
#239000
18
#240000
b1000 9
08
#241000
18
#242000
b1001 9
08
#243000
18
#244000
b1010 9
08
#245000
18
#246000
b1011 9
08
#247000
18
#248000
b1100 9
08
#249000
18
#250000
b1101 9
08
#251000
18
#252000
b1110 9
08
#253000
18
#254000
b1111 9
08
#255000
18
#256000
b0 9
08
#257000
18
#258000
b1010 <
b1010 H
b1010 M
b1000 N
b0 /
b0 :
b0 J
17
b1 9
08
#259000
b0 >
b0 G
b0 Q
b0 I
b0 ?
b0 D
b0 P
b0 F
b0 @
b0 A
b0 O
b0 C
18
#259500
07
#260000
10
b101 6
b101 ;
b101 B
b10 9
08
#261000
b101 @
b101 A
b101 O
b101 C
18
#261500
00
b0 6
b0 ;
b0 B
#262000
b1010 L
b1000 N
b101 =
b101 E
b101 K
b101 R
b101 S
14
b101 /
b101 :
b101 J
11
b11 9
08
#263000
b1010 >
b1010 G
b1010 Q
b1010 I
18
#263500
04
01
#264000
b1111 <
b1111 H
b1111 M
b1000 N
b0 L
b1010 =
b1010 E
b1010 K
b1010 R
b1010 S
12
15
b100 9
08
#265000
b1010 ?
b1010 D
b1010 P
b1010 F
18
#265500
02
05
#266000
b101 9
08
#267000
18
#268000
b110 9
08
#269000
18
#270000
b111 9
08
#271000
18
#272000
b1000 9
08
#273000
18
#274000
b1001 9
08
#275000
18
#276000
b1010 9
08
#277000
18
#278000
b1011 9
08
#279000
18
#280000
b1100 9
08
#281000
18
#282000
b1101 9
08
#283000
18
#284000
b1110 9
08
#285000
18
#286000
b1111 9
08
#287000
18
#288000
b0 9
08
#289000
18
#290000
b1010 <
b1010 H
b1010 M
b1000 N
b0 /
b0 :
b0 J
17
b1 9
08
#291000
b0 >
b0 G
b0 Q
b0 I
b0 ?
b0 D
b0 P
b0 F
b0 @
b0 A
b0 O
b0 C
18
#291500
07
#292000
10
b101 6
b101 ;
b101 B
b10 9
08
#293000
b101 @
b101 A
b101 O
b101 C
18
#293500
00
b0 6
b0 ;
b0 B
#294000
b1010 L
b1000 N
b101 =
b101 E
b101 K
b101 R
b101 S
14
b101 /
b101 :
b101 J
11
b11 9
08
#295000
b1010 >
b1010 G
b1010 Q
b1010 I
18
#295500
04
01
#296000
b1111 <
b1111 H
b1111 M
b1000 N
b0 L
b1010 =
b1010 E
b1010 K
b1010 R
b1010 S
12
15
b100 9
08
#297000
b1010 ?
b1010 D
b1010 P
b1010 F
18
#297500
02
05
#298000
b101 9
08
#299000
18
#300000
b110 9
08
#301000
18
#302000
b111 9
08
#303000
18
#304000
b1000 9
08
#305000
18
#306000
b1001 9
08
#307000
18
#308000
b1010 9
08
#309000
18
#310000
b1011 9
08
#311000
18
#312000
b1100 9
08
#313000
18
#314000
b1101 9
08
#315000
18
#316000
b1110 9
08
#317000
18
#318000
b1111 9
08
#319000
18
#320000
b0 9
08
#321000
18
#322000
b1010 <
b1010 H
b1010 M
b1000 N
b0 /
b0 :
b0 J
17
b1 9
08
#323000
b0 >
b0 G
b0 Q
b0 I
b0 ?
b0 D
b0 P
b0 F
b0 @
b0 A
b0 O
b0 C
18
#323500
07
#324000
10
b101 6
b101 ;
b101 B
b10 9
08
#325000
b101 @
b101 A
b101 O
b101 C
18
#325500
00
b0 6
b0 ;
b0 B
#326000
b1010 L
b1000 N
b101 =
b101 E
b101 K
b101 R
b101 S
14
b101 /
b101 :
b101 J
11
b11 9
08
#327000
b1010 >
b1010 G
b1010 Q
b1010 I
18
#327500
04
01
#328000
b1111 <
b1111 H
b1111 M
b1000 N
b0 L
b1010 =
b1010 E
b1010 K
b1010 R
b1010 S
12
15
b100 9
08
#329000
b1010 ?
b1010 D
b1010 P
b1010 F
18
#329500
02
05
#330000
b101 9
08
#331000
18
#332000
b110 9
08
#333000
18
#334000
b111 9
08
#335000
18
#336000
b1000 9
08
#337000
18
#338000
b1001 9
08
#339000
18
#340000
b1010 9
08
#341000
18
#342000
b1011 9
08
#343000
18
#344000
b1100 9
08
#345000
18
#346000
b1101 9
08
#347000
18
#348000
b1110 9
08
#349000
18
#350000
b1111 9
08
#351000
18
#352000
b0 9
08
#353000
18
#354000
b1010 <
b1010 H
b1010 M
b1000 N
b0 /
b0 :
b0 J
17
b1 9
08
#355000
b0 >
b0 G
b0 Q
b0 I
b0 ?
b0 D
b0 P
b0 F
b0 @
b0 A
b0 O
b0 C
18
#355500
07
#356000
10
b101 6
b101 ;
b101 B
b10 9
08
#357000
b101 @
b101 A
b101 O
b101 C
18
#357500
00
b0 6
b0 ;
b0 B
#358000
b1010 L
b1000 N
b101 =
b101 E
b101 K
b101 R
b101 S
14
b101 /
b101 :
b101 J
11
b11 9
08
#359000
b1010 >
b1010 G
b1010 Q
b1010 I
18
#359500
04
01
#360000
b1111 <
b1111 H
b1111 M
b1000 N
b0 L
b1010 =
b1010 E
b1010 K
b1010 R
b1010 S
12
15
b100 9
08
#361000
b1010 ?
b1010 D
b1010 P
b1010 F
18
#361500
02
05
#362000
b101 9
08
#363000
18
#364000
b110 9
08
#365000
18
#366000
b111 9
08
#367000
18
#368000
b1000 9
08
#369000
18
#370000
b1001 9
08
#371000
18
#372000
b1010 9
08
#373000
18
#374000
b1011 9
08
#375000
18
#376000
b1100 9
08
#377000
18
#378000
b1101 9
08
#379000
18
#380000
b1110 9
08
#381000
18
#382000
b1111 9
08
#383000
18
#384000
b0 9
08
#385000
18
#386000
b1010 <
b1010 H
b1010 M
b1000 N
b0 /
b0 :
b0 J
17
b1 9
08
#387000
b0 >
b0 G
b0 Q
b0 I
b0 ?
b0 D
b0 P
b0 F
b0 @
b0 A
b0 O
b0 C
18
#387500
07
#388000
10
b101 6
b101 ;
b101 B
b10 9
08
#389000
b101 @
b101 A
b101 O
b101 C
18
#389500
00
b0 6
b0 ;
b0 B
#390000
b1010 L
b1000 N
b101 =
b101 E
b101 K
b101 R
b101 S
14
b101 /
b101 :
b101 J
11
b11 9
08
#391000
b1010 >
b1010 G
b1010 Q
b1010 I
18
#391500
04
01
#392000
b1111 <
b1111 H
b1111 M
b1000 N
b0 L
b1010 =
b1010 E
b1010 K
b1010 R
b1010 S
12
15
b100 9
08
#393000
b1010 ?
b1010 D
b1010 P
b1010 F
18
#393500
02
05
#394000
b101 9
08
#395000
18
#396000
b110 9
08
#397000
18
#398000
b111 9
08
#399000
18
#400000
b1000 9
08
#401000
18
#402000
b1001 9
08
#403000
18
#404000
b1010 9
08
#405000
18
#406000
b1011 9
08
#407000
18
#408000
b1100 9
08
#409000
18
#410000
b1101 9
08
#411000
18
#412000
b1110 9
08
#413000
18
#414000
b1111 9
08
#415000
18
#416000
b0 9
08
#417000
18
#418000
b1010 <
b1010 H
b1010 M
b1000 N
b0 /
b0 :
b0 J
17
b1 9
08
#419000
b0 >
b0 G
b0 Q
b0 I
b0 ?
b0 D
b0 P
b0 F
b0 @
b0 A
b0 O
b0 C
18
#419500
07
#420000
10
b101 6
b101 ;
b101 B
b10 9
08
#421000
b101 @
b101 A
b101 O
b101 C
18
#421500
00
b0 6
b0 ;
b0 B
#422000
b1010 L
b1000 N
b101 =
b101 E
b101 K
b101 R
b101 S
14
b101 /
b101 :
b101 J
11
b11 9
08
#423000
b1010 >
b1010 G
b1010 Q
b1010 I
18
#423500
04
01
#424000
b1111 <
b1111 H
b1111 M
b1000 N
b0 L
b1010 =
b1010 E
b1010 K
b1010 R
b1010 S
12
15
b100 9
08
#425000
b1010 ?
b1010 D
b1010 P
b1010 F
18
#425500
02
05
#426000
b101 9
08
#427000
18
#428000
b110 9
08
#429000
18
#430000
b111 9
08
#431000
18
#432000
b1000 9
08
#433000
18
#434000
b1001 9
08
#435000
18
#436000
b1010 9
08
#437000
18
#438000
b1011 9
08
#439000
18
#440000
b1100 9
08
#441000
18
#442000
b1101 9
08
#443000
18
#444000
b1110 9
08
#445000
18
#446000
b1111 9
08
#447000
18
#448000
b0 9
08
#449000
18
#450000
b1010 <
b1010 H
b1010 M
b1000 N
b0 /
b0 :
b0 J
17
b1 9
08
#451000
b0 >
b0 G
b0 Q
b0 I
b0 ?
b0 D
b0 P
b0 F
b0 @
b0 A
b0 O
b0 C
18
#451500
07
#452000
10
b101 6
b101 ;
b101 B
b10 9
08
#453000
b101 @
b101 A
b101 O
b101 C
18
#453500
00
b0 6
b0 ;
b0 B
#454000
b1010 L
b1000 N
b101 =
b101 E
b101 K
b101 R
b101 S
14
b101 /
b101 :
b101 J
11
b11 9
08
#455000
b1010 >
b1010 G
b1010 Q
b1010 I
18
#455500
04
01
#456000
b1111 <
b1111 H
b1111 M
b1000 N
b0 L
b1010 =
b1010 E
b1010 K
b1010 R
b1010 S
12
15
b100 9
08
#457000
b1010 ?
b1010 D
b1010 P
b1010 F
18
#457500
02
05
#458000
b101 9
08
#459000
18
#460000
b110 9
08
#461000
18
#462000
b111 9
08
#463000
18
#464000
b1000 9
08
#465000
18
#466000
b1001 9
08
#467000
18
#468000
b1010 9
08
#469000
18
#470000
b1011 9
08
#471000
18
#472000
b1100 9
08
#473000
18
#474000
b1101 9
08
#475000
18
#476000
b1110 9
08
#477000
18
#478000
b1111 9
08
#479000
18
#480000
b0 9
08
#481000
18
#482000
b1010 <
b1010 H
b1010 M
b1000 N
b0 /
b0 :
b0 J
17
b1 9
08
#483000
b0 >
b0 G
b0 Q
b0 I
b0 ?
b0 D
b0 P
b0 F
b0 @
b0 A
b0 O
b0 C
18
#483500
07
#484000
10
b101 6
b101 ;
b101 B
b10 9
08
#485000
b101 @
b101 A
b101 O
b101 C
18
#485500
00
b0 6
b0 ;
b0 B
#486000
b1010 L
b1000 N
b101 =
b101 E
b101 K
b101 R
b101 S
14
b101 /
b101 :
b101 J
11
b11 9
08
#487000
b1010 >
b1010 G
b1010 Q
b1010 I
18
#487500
04
01
#488000
b1111 <
b1111 H
b1111 M
b1000 N
b0 L
b1010 =
b1010 E
b1010 K
b1010 R
b1010 S
12
15
b100 9
08
#489000
b1010 ?
b1010 D
b1010 P
b1010 F
18
#489500
02
05
#490000
b101 9
08
#491000
18
#492000
b110 9
08
#493000
18
#494000
b111 9
08
#495000
18
#496000
b1000 9
08
#497000
18
#498000
b1001 9
08
#499000
18
#500000
b1010 9
08
#501000
18
#502000
b1011 9
08
#503000
18
#504000
b1100 9
08
#505000
18
#506000
b1101 9
08
#507000
18
#508000
b1110 9
08
#509000
18
#510000
b1111 9
08
#511000
18
#512000
b0 9
08
#513000
18
#514000
b1010 <
b1010 H
b1010 M
b1000 N
b0 /
b0 :
b0 J
17
b1 9
08
#515000
b0 >
b0 G
b0 Q
b0 I
b0 ?
b0 D
b0 P
b0 F
b0 @
b0 A
b0 O
b0 C
18
#515500
07
#516000
10
b101 6
b101 ;
b101 B
b10 9
08
#517000
b101 @
b101 A
b101 O
b101 C
18
#517500
00
b0 6
b0 ;
b0 B
#518000
b1010 L
b1000 N
b101 =
b101 E
b101 K
b101 R
b101 S
14
b101 /
b101 :
b101 J
11
b11 9
08
#519000
b1010 >
b1010 G
b1010 Q
b1010 I
18
#519500
04
01
#520000
b1111 <
b1111 H
b1111 M
b1000 N
b0 L
b1010 =
b1010 E
b1010 K
b1010 R
b1010 S
12
15
b100 9
08
#521000
b1010 ?
b1010 D
b1010 P
b1010 F
18
#521500
02
05
#522000
b101 9
08
#523000
18
#524000
b110 9
08
#525000
18
#526000
b111 9
08
#527000
18
#528000
b1000 9
08
#529000
18
#530000
b1001 9
08
#531000
18
#532000
b1010 9
08
#533000
18
#534000
b1011 9
08
#535000
18
#536000
b1100 9
08
#537000
18
#538000
b1101 9
08
#539000
18
#540000
b1110 9
08
#541000
18
#542000
b1111 9
08
#543000
18
#544000
b0 9
08
#545000
18
#546000
b1010 <
b1010 H
b1010 M
b1000 N
b0 /
b0 :
b0 J
17
b1 9
08
#547000
b0 >
b0 G
b0 Q
b0 I
b0 ?
b0 D
b0 P
b0 F
b0 @
b0 A
b0 O
b0 C
18
#547500
07
#548000
10
b101 6
b101 ;
b101 B
b10 9
08
#549000
b101 @
b101 A
b101 O
b101 C
18
#549500
00
b0 6
b0 ;
b0 B
#550000
b1010 L
b1000 N
b101 =
b101 E
b101 K
b101 R
b101 S
14
b101 /
b101 :
b101 J
11
b11 9
08
#551000
b1010 >
b1010 G
b1010 Q
b1010 I
18
#551500
04
01
#552000
b1111 <
b1111 H
b1111 M
b1000 N
b0 L
b1010 =
b1010 E
b1010 K
b1010 R
b1010 S
12
15
b100 9
08
#553000
b1010 ?
b1010 D
b1010 P
b1010 F
18
#553500
02
05
#554000
b101 9
08
#555000
18
#556000
b110 9
08
#557000
18
#558000
b111 9
08
#559000
18
#560000
b1000 9
08
#561000
18
#562000
b1001 9
08
#563000
18
#564000
b1010 9
08
#565000
18
#566000
b1011 9
08
#567000
18
#568000
b1100 9
08
#569000
18
#570000
b1101 9
08
#571000
18
#572000
b1110 9
08
#573000
18
#574000
b1111 9
08
#575000
18
#576000
b0 9
08
#577000
18
#578000
b1010 <
b1010 H
b1010 M
b1000 N
b0 /
b0 :
b0 J
17
b1 9
08
#579000
b0 >
b0 G
b0 Q
b0 I
b0 ?
b0 D
b0 P
b0 F
b0 @
b0 A
b0 O
b0 C
18
#579500
07
#580000
10
b101 6
b101 ;
b101 B
b10 9
08
#581000
b101 @
b101 A
b101 O
b101 C
18
#581500
00
b0 6
b0 ;
b0 B
#582000
b1010 L
b1000 N
b101 =
b101 E
b101 K
b101 R
b101 S
14
b101 /
b101 :
b101 J
11
b11 9
08
#583000
b1010 >
b1010 G
b1010 Q
b1010 I
18
#583500
04
01
#584000
b1111 <
b1111 H
b1111 M
b1000 N
b0 L
b1010 =
b1010 E
b1010 K
b1010 R
b1010 S
12
15
b100 9
08
#585000
b1010 ?
b1010 D
b1010 P
b1010 F
18
#585500
02
05
#586000
b101 9
08
#587000
18
#588000
b110 9
08
#589000
18
#590000
b111 9
08
#591000
18
#592000
b1000 9
08
#593000
18
#594000
b1001 9
08
#595000
18
#596000
b1010 9
08
#597000
18
#598000
b1011 9
08
#599000
18
#600000
b1100 9
08
#601000
18
#602000
b1101 9
08
#603000
18
#604000
b1110 9
08
#605000
18
#606000
b1111 9
08
#607000
18
#608000
b0 9
08
#609000
18
#610000
b1010 <
b1010 H
b1010 M
b1000 N
b0 /
b0 :
b0 J
17
b1 9
08
#611000
b0 >
b0 G
b0 Q
b0 I
b0 ?
b0 D
b0 P
b0 F
b0 @
b0 A
b0 O
b0 C
18
#611500
07
#612000
10
b101 6
b101 ;
b101 B
b10 9
08
#613000
b101 @
b101 A
b101 O
b101 C
18
#613500
00
b0 6
b0 ;
b0 B
#614000
b1010 L
b1000 N
b101 =
b101 E
b101 K
b101 R
b101 S
14
b101 /
b101 :
b101 J
11
b11 9
08
#615000
b1010 >
b1010 G
b1010 Q
b1010 I
18
#615500
04
01
#616000
b1111 <
b1111 H
b1111 M
b1000 N
b0 L
b1010 =
b1010 E
b1010 K
b1010 R
b1010 S
12
15
b100 9
08
#617000
b1010 ?
b1010 D
b1010 P
b1010 F
18
#617500
02
05
#618000
b101 9
08
#619000
18
#620000
b110 9
08
#621000
18
#622000
b111 9
08
#623000
18
#624000
b1000 9
08
#625000
18
#626000
b1001 9
08
#627000
18
#628000
b1010 9
08
#629000
18
#630000
b1011 9
08
#631000
18
#632000
b1100 9
08
#633000
18
#634000
b1101 9
08
#635000
18
#636000
b1110 9
08
#637000
18
#638000
b1111 9
08
#639000
18
#640000
b0 9
08
#641000
18
#642000
b1010 <
b1010 H
b1010 M
b1000 N
b0 /
b0 :
b0 J
17
b1 9
08
#643000
b0 >
b0 G
b0 Q
b0 I
b0 ?
b0 D
b0 P
b0 F
b0 @
b0 A
b0 O
b0 C
18
#643500
07
#644000
10
b101 6
b101 ;
b101 B
b10 9
08
#645000
b101 @
b101 A
b101 O
b101 C
18
#645500
00
b0 6
b0 ;
b0 B
#646000
b1010 L
b1000 N
b101 =
b101 E
b101 K
b101 R
b101 S
14
b101 /
b101 :
b101 J
11
b11 9
08
#647000
b1010 >
b1010 G
b1010 Q
b1010 I
18
#647500
04
01
#648000
b1111 <
b1111 H
b1111 M
b1000 N
b0 L
b1010 =
b1010 E
b1010 K
b1010 R
b1010 S
12
15
b100 9
08
#649000
b1010 ?
b1010 D
b1010 P
b1010 F
18
#649500
02
05
#650000
b101 9
08
#651000
18
#652000
b110 9
08
#653000
18
#654000
b111 9
08
#655000
18
#656000
b1000 9
08
#657000
18
#658000
b1001 9
08
#659000
18
#660000
b1010 9
08
#661000
18
#662000
b1011 9
08
#663000
18
#664000
b1100 9
08
#665000
18
#666000
b1101 9
08
#667000
18
#668000
b1110 9
08
#669000
18
